<svg xmlns="http://www.w3.org/2000/svg" xmlns:xlink="http://www.w3.org/1999/xlink" width="175.426" height="38" viewBox="0 0 175.426 38">
  <defs>
    <linearGradient id="linear-gradient" x1="0.715" y1="1.441" x2="1.692" y2="1.441" gradientUnits="objectBoundingBox">
      <stop offset="0.043" stop-color="#5f2385"/>
      <stop offset="0.969" stop-color="#9452ba"/>
    </linearGradient>
    <linearGradient id="linear-gradient-2" x1="2.023" y1="3.215" x2="2.023" y2="1.671" gradientUnits="objectBoundingBox">
      <stop offset="0.043" stop-color="#5f2385"/>
      <stop offset="1" stop-color="#fff"/>
    </linearGradient>
    <linearGradient id="linear-gradient-3" x1="1.706" y1="2.973" x2="1.706" y2="1.222" xlink:href="#linear-gradient-2"/>
    <linearGradient id="linear-gradient-4" x1="1.2" y1="1.207" x2="1.2" y2="2.278" gradientUnits="objectBoundingBox">
      <stop offset="0.233" stop-color="#4f1374"/>
      <stop offset="0.84" stop-color="#5f2385"/>
    </linearGradient>
    <linearGradient id="linear-gradient-5" x1="2.38" y1="1.135" x2="2.38" y2="1.835" xlink:href="#linear-gradient-4"/>
  </defs>
  <g id="Group_5" data-name="Group 5" transform="translate(-161 -341.206)">
    <g id="Group_3" data-name="Group 3" transform="translate(161 341.206)">
      <path id="Path_1" data-name="Path 1" d="M28.815,37.133c.138.457.261.77.3.874.012.012-.013-.006,0,0h0s0,0,0,0h0c-.7-9.924,5.048-13.857,7.07-20.365a2.427,2.427,0,0,1,.069-.321,4.575,4.575,0,0,0,.1-.447c.329-1.809-.345-3.948-1.682-6.2a.222.222,0,0,0-.021-.036c-.108-.187-.227-.374-.347-.562,0,0,0,0,0-.007-.221-.342-.457-.689-.7-1.036-.024-.035-.048-.073-.075-.108-.069-.094-.142-.189-.21-.283s-.144-.2-.215-.292l-.222-.284c-.077-.1-.152-.2-.23-.295-.053-.067-.112-.135-.168-.2A49.787,49.787,0,0,0,24.616.026h0a48.7,48.7,0,0,1-.253,10.422,39.327,39.327,0,0,1-3.875,11.433,39.339,39.339,0,0,1-11.66-3.119A47.947,47.947,0,0,1,0,13.181c.023.311.05.617.076.927.008.091.018.183.028.276.022.221.04.44.067.662.01.1.021.2.035.3.024.223.05.443.078.663.01.089.022.18.033.268.037.28.075.557.116.834,0,.028.006.055.01.082.046.322.1.643.15.96,0,.024.009.047.013.073.047.287.1.569.149.852.01.059.021.115.031.173.05.259.1.516.151.774.013.048.023.1.032.151.062.3.124.591.191.882a0,0,0,0,1,0,.006q.325,1.4.72,2.711a.165.165,0,0,1,.008.032,26.247,26.247,0,0,0,1.556,3.974c.088.17.176.34.266.5,0,.006,0,.013.008.018h0c.079.15.162.3.245.439a0,0,0,0,0,0,0,.077.077,0,0,0,.01.016c.09.153.18.305.274.449h0a.636.636,0,0,0,.039.058s0,0,0,0c.121.188.246.371.37.544.024.029.045.056.064.084.006.012.014.021.021.033.145.195.292.383.444.56h0c.1.126.214.243.322.359.047.05.094.094.142.142.068.069.137.135.207.2.051.048.1.09.159.138s.134.115.2.172.107.084.164.124.138.1.21.155l.164.108c.075.047.151.092.226.138l.157.088c.088.045.173.085.263.128.041.017.086.043.131.06a4.023,4.023,0,0,0,.4.153c.092.03.17.062.244.093,6.542,1.964,13.061-.585,20.929,5.45" transform="translate(0 -0.011)" fill="url(#linear-gradient)"/>
      <g id="Group_1" data-name="Group 1" transform="translate(0 0.014)" opacity="0.8">
        <path id="Path_2" data-name="Path 2" d="M181.785,10.552a39.328,39.328,0,0,1-3.875,11.433c7.378.858,14.535-.264,15.767-4.561,1.345-4.694-4.751-11.912-11.639-17.294A47.945,47.945,0,0,1,181.785,10.552Z" transform="translate(-157.424 -0.13)" opacity="0.51" fill="url(#linear-gradient-2)"/>
        <path id="Path_3" data-name="Path 3" d="M8.826,119.961A47.98,47.98,0,0,1,0,114.38c.653,8.72,3.292,17.8,7.942,19.284,4.256,1.359,9.164-3.97,12.544-10.583A39.339,39.339,0,0,1,8.826,119.961Z" transform="translate(0 -101.224)" opacity="0.51" fill="url(#linear-gradient-3)"/>
      </g>
      <g id="Group_2" data-name="Group 2" transform="translate(0 0.014)" opacity="0.7">
        <path id="Path_4" data-name="Path 4" d="M14.694,128.225A26.527,26.527,0,0,1,0,114.38H0c.4,5.343,1.546,10.818,3.444,14.6.083.162.167.326.252.484a.353.353,0,0,1,.022.039c.082.151.166.3.25.442A.6.6,0,0,0,4,130c.083.142.166.279.25.41a.635.635,0,0,0,.039.058c.086.135.173.267.26.395.059.082.116.16.174.236.014.021.029.038.043.059.04.056.082.112.122.162.1.13.2.252.3.371a6.145,6.145,0,0,0,2.749,1.967c.092.03.17.062.244.093,6.542,1.964,13.061-.585,20.929,5.45C28.515,138.415,22.919,131.279,14.694,128.225Z" transform="translate(0 -101.224)" fill="url(#linear-gradient-4)"/>
        <path id="Path_5" data-name="Path 5" d="M225.4,17.424C226.744,12.731,220.648,5.512,213.76.13h0a26.61,26.61,0,0,1,3.332,19.909c-2.06,8.7.932,17.412,1.166,18.073.012.012-.013-.006,0,0h0s0,0,0,0h0c-.7-9.924,5.048-13.857,7.07-20.365A2.29,2.29,0,0,1,225.4,17.424Z" transform="translate(-189.146 -0.13)" fill="url(#linear-gradient-5)"/>
      </g>
      <path id="Path_6" data-name="Path 6" d="M8.825,119.96A48,48,0,0,1,0,114.38c.653,8.72,3.291,17.8,7.942,19.284,4.256,1.359,9.164-3.97,12.543-10.583a39.348,39.348,0,0,1-11.66-3.121" transform="translate(0 -101.21)" fill="none"/>
    </g>
    <g id="Group_4" data-name="Group 4" transform="translate(205.597 344.963)">
      <path id="Path_7" data-name="Path 7" d="M12.466,33.154a4.023,4.023,0,0,0-1.233-3.374,5.8,5.8,0,0,0-3.58-.945,15.245,15.245,0,0,0-2.7.226,20.763,20.763,0,0,0-2.449.6,6.407,6.407,0,0,1-.781-3.251,18.891,18.891,0,0,1,3.087-.7,22.445,22.445,0,0,1,3.251-.247q4.116,0,6.252,1.874t2.141,5.985V46.524q-1.439.329-3.5.678a25.015,25.015,0,0,1-4.2.349,16.449,16.449,0,0,1-3.641-.37A7.475,7.475,0,0,1,2.364,45.99a5.552,5.552,0,0,1-1.751-2.1A7.078,7.078,0,0,1,0,40.807a6.3,6.3,0,0,1,2.672-5.33,8.722,8.722,0,0,1,2.84-1.315,12.939,12.939,0,0,1,3.374-.432q1.315,0,2.158.062t1.418.144v-.781Zm0,3.991q-.617-.082-1.562-.164T9.3,36.9a6.7,6.7,0,0,0-3.888.945,3.293,3.293,0,0,0-1.339,2.881,3.556,3.556,0,0,0,.452,1.935,3.117,3.117,0,0,0,1.13,1.069,3.911,3.911,0,0,0,1.5.452q.822.082,1.562.082a19.24,19.24,0,0,0,1.953-.1,11.766,11.766,0,0,0,1.788-.308V37.145Z" transform="translate(0 -16.738)"/>
      <path id="Path_8" data-name="Path 8" d="M65.45.164A9.644,9.644,0,0,1,66.457.041C66.831.014,67.166,0,67.468,0s.644.014,1.028.041a9.626,9.626,0,0,1,1.028.123V30.32a9.63,9.63,0,0,1-1.028.123q-.575.041-1.028.041t-1.007-.041a9.648,9.648,0,0,1-1.007-.123V.164ZM69.6,19.379,77.34,9.218q.534-.082,1.069-.123t1.11-.041q.617,0,1.172.041t1.13.123l-7.742,9.873,8.9,11.233q-.576.082-1.11.123t-1.11.041q-.576,0-1.151-.041t-1.151-.123Z" transform="translate(-43.029 0)"/>
      <path id="Path_9" data-name="Path 9" d="M125.853,37.515q.082,3.458,1.788,5.06a7.11,7.11,0,0,0,5.039,1.607,15.134,15.134,0,0,0,5.553-1.028,6.161,6.161,0,0,1,.534,1.5,9.753,9.753,0,0,1,.247,1.747,13.732,13.732,0,0,1-2.984.863,20.725,20.725,0,0,1-3.6.288,13.6,13.6,0,0,1-4.936-.8,8.674,8.674,0,0,1-5.347-5.721,14.785,14.785,0,0,1-.617-4.381,15.533,15.533,0,0,1,.6-4.381,9.9,9.9,0,0,1,1.829-3.539,8.82,8.82,0,0,1,3.107-2.384,10.259,10.259,0,0,1,4.423-.884,9.254,9.254,0,0,1,3.826.74,7.706,7.706,0,0,1,2.754,2.038,8.879,8.879,0,0,1,1.689,3.086,12.623,12.623,0,0,1,.576,3.888c0,.384-.014.791-.041,1.213s-.055.788-.082,1.089H125.853ZM136.3,34.469a7.756,7.756,0,0,0-.308-2.2,5.576,5.576,0,0,0-.9-1.829,4.4,4.4,0,0,0-1.521-1.254,4.792,4.792,0,0,0-2.2-.473,4.85,4.85,0,0,0-3.847,1.521,7.456,7.456,0,0,0-1.624,4.238H136.3Z" transform="translate(-79.898 -16.738)"/>
      <path id="Path_10" data-name="Path 10" d="M192.033,25.96q.452-.082.884-.123t.884-.041a8.075,8.075,0,0,1,.843.041q.391.041.843.123c.082.411.164.966.247,1.668a15.429,15.429,0,0,1,.123,1.747,8.447,8.447,0,0,1,1.048-1.4,8.084,8.084,0,0,1,1.459-1.254A7.518,7.518,0,0,1,202.6,25.47q3.617,0,5.347,2.079t1.727,6.149v13.37a9.621,9.621,0,0,1-1.028.123q-.575.041-1.028.041t-1.007-.041a9.64,9.64,0,0,1-1.007-.123V34.8a8.01,8.01,0,0,0-.9-4.3,3.193,3.193,0,0,0-2.881-1.377,5.812,5.812,0,0,0-2.179.411,4.885,4.885,0,0,0-1.812,1.274,6.381,6.381,0,0,0-1.254,2.24,10.26,10.26,0,0,0-.473,3.313v10.7a9.641,9.641,0,0,1-1.007.123q-.555.041-1.007.041t-1.028-.041a9.625,9.625,0,0,1-1.028-.123V25.96Z" transform="translate(-126.248 -16.745)"/>
      <path id="Path_11" data-name="Path 11" d="M262.043,37.515q.082,3.458,1.792,5.06a7.11,7.11,0,0,0,5.039,1.607,15.134,15.134,0,0,0,5.553-1.028,6.158,6.158,0,0,1,.534,1.5,9.75,9.75,0,0,1,.247,1.747,13.786,13.786,0,0,1-2.984.863,20.752,20.752,0,0,1-3.6.288,13.589,13.589,0,0,1-4.936-.8,8.845,8.845,0,0,1-3.395-2.264,9,9,0,0,1-1.956-3.456,14.787,14.787,0,0,1-.617-4.381,15.534,15.534,0,0,1,.6-4.381,9.909,9.909,0,0,1,1.833-3.539,8.821,8.821,0,0,1,3.107-2.384,10.269,10.269,0,0,1,4.423-.884,9.255,9.255,0,0,1,3.826.74,7.707,7.707,0,0,1,2.754,2.038,8.879,8.879,0,0,1,1.689,3.086,12.623,12.623,0,0,1,.576,3.888c0,.384-.014.791-.041,1.213s-.055.788-.082,1.089H262.043Zm10.448-3.045a7.758,7.758,0,0,0-.308-2.2,5.574,5.574,0,0,0-.9-1.829,4.4,4.4,0,0,0-1.521-1.254,4.792,4.792,0,0,0-2.2-.473,4.846,4.846,0,0,0-3.847,1.521,7.457,7.457,0,0,0-1.627,4.238h10.41Z" transform="translate(-169.434 -16.738)"/>
      <path id="Path_12" data-name="Path 12" d="M334.342,47.545a10.34,10.34,0,0,1-4.32-.843,8.557,8.557,0,0,1-3.086-2.326,9.606,9.606,0,0,1-1.829-3.5,16.25,16.25,0,0,1,0-8.722,9.714,9.714,0,0,1,1.829-3.5,8.846,8.846,0,0,1,3.086-2.347,11.239,11.239,0,0,1,8.639,0,8.751,8.751,0,0,1,3.083,2.347,9.693,9.693,0,0,1,1.833,3.5,16.25,16.25,0,0,1,0,8.722,9.613,9.613,0,0,1-1.833,3.5,8.622,8.622,0,0,1-3.083,2.326A10.35,10.35,0,0,1,334.342,47.545Zm0-3.251a4.677,4.677,0,0,0,4.2-2.055,10.316,10.316,0,0,0,1.357-5.717,10.21,10.21,0,0,0-1.357-5.7,4.692,4.692,0,0,0-4.2-2.035,4.641,4.641,0,0,0-4.176,2.035,10.335,10.335,0,0,0-1.336,5.7,10.435,10.435,0,0,0,1.336,5.717A4.615,4.615,0,0,0,334.342,44.294Z" transform="translate(-213.345 -16.732)"/>
    </g>
  </g>
</svg>
