<?xml version="1.0" encoding="UTF-8" standalone="no"?>
<!DOCTYPE svg PUBLIC "-//W3C//DTD SVG 20010904//EN" "http://www.w3.org/TR/2001/REC-SVG-20010904/DTD/svg10.dtd">
<svg version="1.0" xmlns="http://www.w3.org/2000/svg" width="275.000000pt" height="275.000000pt" viewBox="0 0 275.000000 275.000000" preserveAspectRatio="xMidYMid meet">
<metadata>
Created by potrace 1.11, written by Peter Selinger 2001-2013
</metadata>
<g transform="translate(0.000000,275.000000) scale(0.100000,-0.100000)" fill="#000000" stroke="none">
<path d="M1826 2703 c15 -130 2 -547 -22 -713 -24 -161 -109 -440 -194 -636 -85 -196 -73 -183 -167 -168 -43 6 -96 15 -118 18 -22 4 -47 8 -55 11 -8 2 -26 6 -40 9 -14 2 -45 9 -70 15 -25 7 -55 14 -67 16 -12 3 -84 26 -160 51 -239 78 -524 231 -763 410 l-100 74 0 -81 c0 -45 7 -129 16 -188 71 -485 203 -832 380 -1007 116 -115 273 -154 714 -179 58 -3 123 -8 145 -10 22 -3 57 -7 77 -10 246 -29 463 -108 660 -243 43 -28 79 -52 80 -52 2 0 3 46 3 102 1 314 67 525 277 883 32 55 62 107 68 115 5 8 34 63 65 122 145 281 151 422 28 667 -82 164 -196 311 -397 514 -112 113 -329 305 -356 315 -4 2 -6 -14 -4 -35z"/>
</g>
</svg>